<svg width="40" height="30" viewBox="0 0 40 30" fill="none" xmlns="http://www.w3.org/2000/svg">
<path d="M15.8735 16.4677H11.8947C11.6 16.4677 11.4033 16.2719 11.4033 15.9777C11.4033 15.6839 11.5997 15.4878 11.8947 15.4878H15.8735C16.1682 15.4878 16.3649 15.6836 16.3649 15.9777C16.3646 16.2716 16.1682 16.4677 15.8735 16.4677Z" fill="#4EB4FF"/>
<path d="M39.5016 29.937H0.498143C0.350801 29.937 0.203459 29.8389 0.105117 29.7412C0.00677449 29.5943 0.00677416 29.4474 0.0561171 29.3005L5.50875 15.8311C5.60709 15.6353 5.75443 15.5373 5.95078 15.5373H7.91551C8.2102 15.5373 8.40688 15.7331 8.40688 16.0272C8.40688 16.321 8.21054 16.5172 7.91551 16.5172H6.24542L1.23481 28.9571H38.7646L33.705 16.4673H32.0349C31.7402 16.4673 31.5435 16.2715 31.5435 15.9774C31.5435 15.6835 31.7399 15.4874 32.0349 15.4874H33.9996C34.196 15.4874 34.3927 15.5855 34.4417 15.7813L39.8943 29.2506C39.9433 29.3976 39.9433 29.5937 39.8453 29.6914C39.7963 29.8386 39.6489 29.9367 39.5016 29.9367L39.5016 29.937Z" fill="#4EB4FF"/>
<path d="M28.4982 16.4677H24.0773C23.7826 16.4677 23.5859 16.2719 23.5859 15.9777C23.5859 15.6839 23.7823 15.4878 24.0773 15.4878H28.4982C28.7929 15.4878 28.9896 15.6836 28.9896 15.9777C28.9896 16.2716 28.7929 16.4677 28.4982 16.4677Z" fill="#4EB4FF"/>
<path d="M20 23.1778C19.8526 23.1778 19.656 23.0798 19.607 22.9329C19.4106 22.5898 14.449 15.0471 14.449 12.1573C14.449 9.12069 16.9542 6.62256 19.9999 6.62256C23.0455 6.62256 25.5509 9.12043 25.5509 12.1573C25.5509 15.0471 20.6386 22.59 20.3929 22.9329C20.3439 23.129 20.1472 23.1778 19.9999 23.1778H20ZM20 7.65129C17.4948 7.65129 15.4317 9.70843 15.4317 12.2062C15.4317 14.1652 18.4282 19.3082 20 21.8062C21.5721 19.3083 24.5682 14.1655 24.5682 12.2062C24.5682 9.70834 22.5051 7.65129 20 7.65129Z" fill="#4EB4FF"/>
<path d="M19.9998 14.0677C18.8208 14.0677 17.8877 13.137 17.8877 11.9617C17.8877 10.7861 18.8211 9.85577 19.9998 9.85577C21.1788 9.85577 22.1119 10.7865 22.1119 11.9617C22.1119 13.137 21.1788 14.0677 19.9998 14.0677ZM19.9998 10.786C19.3611 10.786 18.8701 11.276 18.8701 11.9125C18.8701 12.5493 19.3614 13.0389 19.9998 13.0389C20.6385 13.0389 21.1295 12.549 21.1295 11.9125C21.1295 11.276 20.6385 10.786 19.9998 10.786Z" fill="#4EB4FF"/>
<path d="M9.83146 17.8391C9.53677 17.8391 9.34009 17.6433 9.34009 17.3491L9.34043 11.3247C9.34043 11.0309 9.53677 10.8348 9.8318 10.8348C10.1265 10.8348 10.3232 11.0305 10.3232 11.3247V17.3491C10.3228 17.5941 10.0771 17.8391 9.83146 17.8391Z" fill="#4EB4FF"/>
<path d="M9.83158 13.8717C7.71947 13.8717 6 12.1573 6 10.0513C6 7.94536 7.71947 6.2309 9.83158 6.2309C11.9437 6.2309 13.6632 7.94536 13.6632 10.0513C13.6635 12.1573 11.944 13.8717 9.83158 13.8717ZM9.83158 7.21049C8.25947 7.21049 6.98246 8.48387 6.98246 10.0513C6.98246 11.6187 8.25956 12.8921 9.83158 12.8921C11.4036 12.8921 12.6807 11.6187 12.6807 10.0513C12.6807 8.48387 11.4036 7.21049 9.83158 7.21049Z" fill="#4EB4FF"/>
<path d="M12.3859 18.2309H7.27726C6.98257 18.2309 6.78589 18.0351 6.78589 17.741C6.78589 17.4472 6.98223 17.251 7.27726 17.251H12.3859C12.6805 17.251 12.8772 17.4468 12.8772 17.741C12.8772 18.0348 12.6805 18.2309 12.3859 18.2309Z" fill="#4EB4FF"/>
<path d="M30.2174 17.8391C29.9228 17.8391 29.7261 17.6433 29.7261 17.3491V11.3247C29.7261 11.0309 29.9224 10.8348 30.2174 10.8348C30.5121 10.8348 30.7088 11.0305 30.7088 11.3247V17.3491C30.7085 17.5941 30.5121 17.8391 30.2174 17.8391Z" fill="#4EB4FF"/>
<path d="M30.2173 13.8717C28.1052 13.8717 26.3857 12.1573 26.3857 10.0513C26.3857 7.94536 28.1052 6.2309 30.2173 6.2309C32.3294 6.2309 34.0489 7.94536 34.0489 10.0513C34.0489 12.1573 32.3294 13.8717 30.2173 13.8717ZM30.2173 7.21049C28.6452 7.21049 27.3682 8.48387 27.3682 10.0513C27.3682 11.6187 28.6453 12.8921 30.2173 12.8921C31.7893 12.8921 33.0664 11.6187 33.0664 10.0513C33.0664 8.48387 31.7891 7.21049 30.2173 7.21049Z" fill="#4EB4FF"/>
<path d="M32.7719 18.2309H27.663C27.3683 18.2309 27.1716 18.0351 27.1716 17.741C27.1716 17.4472 27.368 17.251 27.663 17.251H32.7719C33.0666 17.251 33.2633 17.4468 33.2633 17.741C33.263 18.0348 33.0666 18.2309 32.7719 18.2309Z" fill="#4EB4FF"/>
<path d="M27.1718 4.76152C26.6805 4.76152 26.1895 4.66346 25.7964 4.46769C24.2243 4.6146 22.9473 3.83085 22.9473 2.75323C22.9473 2.06753 23.4876 1.47985 24.3717 1.18571C24.7157 0.500012 25.6488 0.0592651 26.7295 0.0592651C28.1049 0.0592651 29.2346 0.793819 29.2346 1.77373V2.01869C29.5293 2.31252 29.6767 2.65553 29.6767 2.9982C29.677 4.02659 28.5473 4.76146 27.1718 4.76146L27.1718 4.76152ZM25.8945 3.48787C25.9928 3.48787 26.0418 3.48787 26.1401 3.53673C26.4348 3.68364 26.8278 3.7817 27.2208 3.7817C28.0559 3.7817 28.7436 3.38981 28.7436 3.04714C28.7436 2.90023 28.6452 2.75332 28.4489 2.6064C28.2525 2.45949 28.1542 2.16567 28.3015 1.96956C28.3505 1.92071 28.3505 1.87151 28.3505 1.82265C28.3505 1.47963 27.7118 1.0881 26.8278 1.0881C26.0418 1.0881 25.4034 1.43112 25.3051 1.77379C25.2561 1.96956 25.1088 2.11682 24.9121 2.11682C24.3227 2.26373 23.9787 2.55756 23.9787 2.80252C23.9787 3.14554 24.6174 3.53707 25.5014 3.53707C25.6487 3.53707 25.7471 3.53707 25.8944 3.48821C25.8454 3.48787 25.8454 3.48787 25.8944 3.48787L25.8945 3.48787Z" fill="#4EB4FF"/>
<path d="M12.7788 5.30027C12.2874 5.30027 11.7964 5.20222 11.4033 5.00645C9.83122 5.15336 8.5542 4.36961 8.5542 3.29199C8.5542 2.60629 9.09457 2.01861 9.97858 1.72447C10.3226 1.03877 11.2557 0.598022 12.3364 0.598022C13.7118 0.598022 14.8416 1.33258 14.8416 2.31248V2.55745C15.1363 2.85128 15.2836 3.19429 15.2836 3.53696C15.2349 4.51646 14.1542 5.30022 12.7788 5.30022L12.7788 5.30027ZM11.4524 4.02663C11.5507 4.02663 11.5997 4.02663 11.698 4.07548C11.9927 4.2224 12.3857 4.32045 12.7787 4.32045C13.6138 4.32045 14.3015 3.92857 14.3015 3.5859C14.3015 3.43899 14.2031 3.29207 14.0068 3.14516C13.8104 2.99825 13.7121 2.70442 13.8594 2.50832C13.9084 2.45947 13.9084 2.41027 13.9084 2.36141C13.9084 2.01839 13.2697 1.62686 12.3857 1.62686C11.5997 1.62686 10.9613 1.96988 10.863 2.31255C10.814 2.50832 10.6667 2.65558 10.47 2.65558C9.8806 2.80249 9.53655 3.09631 9.53655 3.34127C9.53655 3.6843 10.1753 4.07583 11.0593 4.07583C11.2066 4.07583 11.305 4.07583 11.4523 4.02697C11.4033 4.02663 11.4523 4.02663 11.4523 4.02663L11.4524 4.02663Z" fill="#4EB4FF"/>
<path d="M20.1473 24.5983C17.2982 24.5983 14.449 23.8145 14.449 22.345C14.449 21.3163 15.8734 20.4837 18.2806 20.1898C18.5262 20.141 18.7719 20.3368 18.8209 20.6306C18.8699 20.8755 18.6736 21.1205 18.3789 21.1694C16.3157 21.4143 15.3824 22.0508 15.3824 22.345C15.3824 22.7368 17.0035 23.6183 20.0984 23.6183C23.1933 23.6183 24.8143 22.7369 24.8143 22.345C24.8143 22.0511 23.832 21.3655 21.5231 21.1694C21.2774 21.1205 21.0317 20.9244 21.0811 20.6306C21.1301 20.3856 21.3268 20.1898 21.6214 20.1898C23.6356 20.3856 25.7971 21.0713 25.7971 22.345C25.8457 23.8149 22.9965 24.5983 20.1474 24.5983H20.1473Z" fill="#4EB4FF"/>
</svg>
